module gitlab.com/sparkserver/freeroam

go 1.12

require (
	github.com/google/gops v0.3.8
	github.com/gorilla/websocket v1.4.0
	github.com/kardianos/osext v0.0.0-20190222173326-2bc1f35cddc0 // indirect
)
